植生データの解析方法
…
準備：パッケージの呼び出し

library(vegan)
library(ecan)
library(tidyverse)

dune.envデータ(地点)

data(dune.env) # 地点
dune_env_df <- 
  tibble::tibble(dune.env) |> # A1, Moisture, Management, Use, Manure
  tibble::rownames_to_column("stand") |> # 地点名を列に変換
  print(n = 8) # 8行のみ

## # A tibble: 20 × 6
##   stand    A1 Moisture Management Use      Manure
##   <chr> <dbl> <ord>    <fct>      <ord>    <ord> 
## 1 1       2.8 1        SF         Haypastu 4     
## 2 2       3.5 1        BF         Haypastu 2     
## 3 3       4.3 2        SF         Haypastu 4     
## 4 4       4.2 2        SF         Haypastu 4     
## 5 5       6.3 1        HF         Hayfield 2     
## 6 6       4.3 1        HF         Haypastu 2     
## 7 7       2.8 1        HF         Pasture  3     
## 8 8       4.2 5        HF         Pasture  3     
## # ℹ 12 more rows

duneデータ(組成)

data(dune) # 組成
tibble(dune) |> # 0-9の値
  dplyr::select(1:5) |> # 5列のみ表示
  print(n = 8) # 8行のみ

## # A tibble: 20 × 5
##   Achimill Agrostol Airaprae Alopgeni Anthodor
##      <dbl>    <dbl>    <dbl>    <dbl>    <dbl>
## 1        1        0        0        0        0
## 2        3        0        0        2        0
## 3        0        4        0        7        0
## 4        0        8        0        2        0
## 5        2        0        0        0        4
## 6        2        0        0        0        3
## 7        2        0        0        0        2
## 8        0        4        0        5        0
## # ℹ 12 more rows

duneデータの変換

dune_df <- 
  dune |>  # 組成表形式からdf形式に変換
  ecan::table2df(st = "stand", sp = "species", ab = "cover")
dune_df

## # A tibble: 197 × 3
##    stand species  cover
##    <chr> <chr>    <dbl>
##  1 1     Achimill     1
##  2 1     Elymrepe     4
##  3 1     Lolipere     7
##  4 1     Poaprat      4
##  5 1     Poatriv      2
##  6 2     Achimill     3
##  7 2     Alopgeni     2
##  8 2     Bellpere     3
##  9 2     Bromhord     4
## 10 2     Elymrepe     4
## # ℹ 187 more rows

種データ(ダミー)

sp_dummy <- tibble::tibble(
  "species" = colnames(dune), 
  "dummy_1" = stringr::str_sub(colnames(dune), 1, 1), # 1文字目
  "dummy_6" = stringr::str_sub(colnames(dune), 6, 6)) # 6文字目
print(sp_dummy, n = 8)

## # A tibble: 30 × 3
##   species  dummy_1 dummy_6
##   <chr>    <chr>   <chr>  
## 1 Achimill A       i      
## 2 Agrostol A       t      
## 3 Airaprae A       r      
## 4 Alopgeni A       e      
## 5 Anthodor A       d      
## 6 Bellpere B       e      
## 7 Bromhord B       o      
## 8 Chenalbu C       l      
## # ℹ 22 more rows

データの結合

df <- 
    dune_df |>                       # 組成
    dplyr::left_join(dune_env_df) |> # 地点
    dplyr::left_join(sp_dummy)       # 種

データの結合：基本データの完成!

print(df, n = 8)

## # A tibble: 197 × 10
##   stand species  cover    A1 Moisture Management Use      Manure dummy_1 dummy_6
##   <chr> <chr>    <dbl> <dbl> <ord>    <fct>      <ord>    <ord>  <chr>   <chr>  
## 1 1     Achimill     1   2.8 1        SF         Haypastu 4      A       i      
## 2 1     Elymrepe     4   2.8 1        SF         Haypastu 4      E       e      
## 3 1     Lolipere     7   2.8 1        SF         Haypastu 4      L       e      
## 4 1     Poaprat      4   2.8 1        SF         Haypastu 4      P       a      
## 5 1     Poatriv      2   2.8 1        SF         Haypastu 4      P       i      
## 6 2     Achimill     3   3.5 1        BF         Haypastu 2      A       i      
## 7 2     Alopgeni     2   3.5 1        BF         Haypastu 2      A       e      
## 8 2     Bellpere     3   3.5 1        BF         Haypastu 2      B       e      
## # ℹ 189 more rows

α多様性

s: 種数

h: Shannon’s H’

d: Simpson’s index (1 - D)

i: Simpson’s inverse (1 / D)

div <- ecan::shdi(df)
print(div, n = 8)

## # A tibble: 20 × 5
##   stand     s     h     d     i
##   <chr> <int> <dbl> <dbl> <dbl>
## 1 1         5  1.44 0.735  3.77
## 2 10       12  2.40 0.903 10.3 
## 3 11        9  2.11 0.867  7.53
## 4 12        9  2.11 0.869  7.61
## 5 13       10  2.10 0.852  6.76
## 6 14        7  1.86 0.833  6   
## 7 15        8  1.98 0.851  6.70
## 8 16        8  1.96 0.843  6.37
## # ℹ 12 more rows
…
指標種分析の結果：まとめ

  # 最大値のクラス(区分)，その指標値とp値
tibble(
  cls = isa_res_raw$maxcls, 
  ind_val = isa_res_raw$indcls, 
  p = isa_res_raw$pval)

## # A tibble: 30 × 3
##      cls ind_val     p
##    <int>   <dbl> <dbl>
##  1     2   0.386 0.106
##  2     1   0.188 0.701
##  3     2   0.45  0.073
##  4     2   0.379 0.172
##  5     3   0.365 0.233
##  6     1   0.547 0.037
##  7     2   0.362 0.124
##  8     2   0.448 0.047
##  9     2   0.372 0.097
## 10     2   0.439 0.058
## # ℹ 20 more rows

指標種分析の結果：整理した結果

group <- "Management"
(isa_res <- ind_val(df, group = group))

## # A tibble: 30 × 4
##    Management species  ind.val p.value
##    <fct>      <chr>      <dbl>   <dbl>
##  1 SF         Elymrepe   0.188   0.691
##  2 SF         Alopgeni   0.547   0.043
##  3 SF         Agrostol   0.472   0.059
##  4 SF         Cirsarve   0.167   1    
##  5 SF         Sagiproc   0.241   0.496
##  6 SF         Chenalbu   0.167   1    
##  7 BF         Achimill   0.386   0.108
##  8 BF         Lolipere   0.45    0.055
##  9 BF         Poaprat    0.379   0.219
## 10 BF         Bellpere   0.362   0.118
## # ℹ 20 more rows
…
